Homework 1
…
4) Filter join (Cam)

# get registration data for those who only interacted with the VLE once
(data_std_regist_infrequent <- anti_join(data_std_regist, cam_data))

## # A tibble: 28,409 x 5
##    code_module code_presentati id_student date_registrati
##    <chr>       <chr>                 <int>            <int>
##  1 AAA         2013J                 11391             -159
##  2 AAA         2013J                 53025             -179
##  3 AAA         2013J                 71361             -130
##  4 AAA         2013J                104476             -109
##  5 AAA         2013J                114017              -29
##  6 AAA         2013J                172112              -50
##  7 AAA         2013J                172797              -45
##  8 AAA         2013J                174782             -162
##  9 AAA         2013J                175392             -195
## 10 AAA         2013J                227517             -172
## # ... with 28,399 more rows, and 1 more variable:
## #   date_unregistration <int>

# get registration data for those who only interacted with the VLE more than once
(data_std_regist_frequent   <- semi_join(data_std_regist, cam_data))

## # A tibble: 4,184 x 5
##    code_module code_presentati id_student date_registrati
##    <chr>       <chr>                 <int>            <int>
##  1 AAA         2013J                 28400              -53
##  2 AAA         2013J                 30268              -92
##  3 AAA         2013J                 31604              -52
##  4 AAA         2013J                 32885             -176
##  5 AAA         2013J                 38053             -110
##  6 AAA         2013J                 45462              -67
##  7 AAA         2013J                 45642              -29
##  8 AAA         2013J                 52130              -33
##  9 AAA         2013J                 57506             -103
## 10 AAA         2013J                 58873              -47
## # ... with 4,174 more rows, and 1 more variable: date_unregistration <int>
…
